name  ,x_pos,y_pos,angle,x_charge_radius,y_charge_radius,partial_charge_width,max_power_transfer
coil_0,2    ,0    ,0    ,1              ,.2             ,.2                  ,60
coil_1,8    ,0    ,0    ,1              ,.2             ,.2                  ,60
coil_2,14   ,0    ,0    ,1              ,.2             ,.2                  ,60